{
  "EDITOR_STATE": {
    "allProjectFiles": {
      "be98c524-c110-4cd7-a809-f57c3e7edf8b": {
        "id": "be98c524-c110-4cd7-a809-f57c3e7edf8b",
        "parent": null,
        "name": "sigma-2-002",
        "type": "DIRECTORY",
        "isDirectory": true,
        "children": [
          "f9605e1f-997d-4263-98f8-e183cf03257d"
        ],
        "isRemovable": false,
        "filePath": "sigma-2-002"
      },
      "f9605e1f-997d-4263-98f8-e183cf03257d": {
        "id": "f9605e1f-997d-4263-98f8-e183cf03257d",
        "parent": "be98c524-c110-4cd7-a809-f57c3e7edf8b",
        "name": "lambda.js",
        "type": "JS_LAMBDA",
        "isDirectory": false,
        "children": [],
        "isRemovable": true,
        "filePath": "sigma-2-002/lambda.js",
        "code": "exports.handler = function(event, context, callback) {\n    \n    callback(null, {\"message\": \"Successfully executed\"});\n}",
        "config": {
          "runtime": "nodejs8.10",
          "handler": "handler",
          "timeout": 60,
          "memory": 128,
          "layers": []
        },
        "triggers": []
      }
    },
    "rootNode": "be98c524-c110-4cd7-a809-f57c3e7edf8b",
    "openFiles": [
      "f9605e1f-997d-4263-98f8-e183cf03257d"
    ],
    "currentFileId": "f9605e1f-997d-4263-98f8-e183cf03257d",
    "resources": {},
    "customTemplate": {
      "dialect": null,
      "definitions": null
    },
    "envVariables": [
      {
        "lambdaId": "all",
        "varKey": "SIGMA_AWS_ACC_ID",
        "varValue": null,
        "shouldPersist": false,
        "displayOnly": false,
        "editable": false
      }
    ],
    "packageJSON": {
      "dependencies": {}
    }
  },
  "PROJECT_META": {
    "projectName": "sigma-2-002",
    "projectDescription": "",
    "projectVersion": "1.0.0",
    "projectRegion": "us-east-1",
    "platform": "AWS",
    "platformRegions": {}
  },
  "VCS_STATE": {
    "provider": "BitBucket",
    "repo": {
      "name": "sigma-2-002",
      "url": "https://bitbucket.org/sigmavcs/sigma-2-002"
    }
  }
}